<?xml version="1.0" encoding="UTF-8" standalone="no"?>
<!--Created by yFiles for HTML 2.4-->
<graphml xsi:schemaLocation="http://graphml.graphdrawing.org/xmlns http://www.yworks.com/xml/schema/graphml.html/2.0/ygraphml.xsd " xmlns="http://graphml.graphdrawing.org/xmlns" xmlns:demostyle="http://www.yworks.com/yFilesHTML/demos/FlatDemoStyle/1.0" xmlns:icon-style="http://www.yworks.com/yed-live/icon-style/1.0" xmlns:bpmn="http://www.yworks.com/xml/yfiles-bpmn/2.0" xmlns:demotablestyle="http://www.yworks.com/yFilesHTML/demos/FlatDemoTableStyle/1.0" xmlns:uml="http://www.yworks.com/yFilesHTML/demos/UMLDemoStyle/1.0" xmlns:GraphvizNodeStyle="http://www.yworks.com/yFilesHTML/graphviz-node-style/1.0" xmlns:VuejsNodeStyle="http://www.yworks.com/demos/yfiles-vuejs-node-style/1.0" xmlns:explorer-style="http://www.yworks.com/data-explorer/1.0" xmlns:y="http://www.yworks.com/xml/yfiles-common/3.0" xmlns:x="http://www.yworks.com/xml/yfiles-common/markup/3.0" xmlns:yjs="http://www.yworks.com/xml/yfiles-for-html/2.0/xaml" xmlns:xsi="http://www.w3.org/2001/XMLSchema-instance">
	<key id="d0" for="node" attr.type="int" attr.name="zOrder" y:attr.uri="http://www.yworks.com/xml/yfiles-z-order/1.0/zOrder"/>
	<key id="d1" for="node" attr.type="boolean" attr.name="Expanded" y:attr.uri="http://www.yworks.com/xml/yfiles-common/2.0/folding/Expanded">
		<default>true</default>
	</key>
	<key id="d2" for="node" attr.type="string" attr.name="url"/>
	<key id="d3" for="node" attr.type="string" attr.name="description"/>
	<key id="d4" for="node" attr.name="NodeLabels" y:attr.uri="http://www.yworks.com/xml/yfiles-common/2.0/NodeLabels"/>
	<key id="d5" for="node" attr.name="NodeGeometry" y:attr.uri="http://www.yworks.com/xml/yfiles-common/2.0/NodeGeometry"/>
	<key id="d6" for="all" attr.name="UserTags" y:attr.uri="http://www.yworks.com/xml/yfiles-common/2.0/UserTags"/>
	<key id="d7" for="node" attr.name="NodeStyle" y:attr.uri="http://www.yworks.com/xml/yfiles-common/2.0/NodeStyle"/>
	<key id="d8" for="node" attr.name="NodeViewState" y:attr.uri="http://www.yworks.com/xml/yfiles-common/2.0/folding/1.1/NodeViewState"/>
	<key id="d9" for="edge" attr.type="string" attr.name="url"/>
	<key id="d10" for="edge" attr.type="string" attr.name="description"/>
	<key id="d11" for="edge" attr.name="EdgeLabels" y:attr.uri="http://www.yworks.com/xml/yfiles-common/2.0/EdgeLabels"/>
	<key id="d12" for="edge" attr.name="EdgeGeometry" y:attr.uri="http://www.yworks.com/xml/yfiles-common/2.0/EdgeGeometry"/>
	<key id="d13" for="edge" attr.name="EdgeStyle" y:attr.uri="http://www.yworks.com/xml/yfiles-common/2.0/EdgeStyle"/>
	<key id="d14" for="edge" attr.name="EdgeViewState" y:attr.uri="http://www.yworks.com/xml/yfiles-common/2.0/folding/1.1/EdgeViewState"/>
	<key id="d15" for="port" attr.name="PortLabels" y:attr.uri="http://www.yworks.com/xml/yfiles-common/2.0/PortLabels"/>
	<key id="d16" for="port" attr.name="PortLocationParameter" y:attr.uri="http://www.yworks.com/xml/yfiles-common/2.0/PortLocationParameter">
		<default>
			<x:Static Member="y:FreeNodePortLocationModel.NodeCenterAnchored"/>
		</default>
	</key>
	<key id="d17" for="port" attr.name="PortStyle" y:attr.uri="http://www.yworks.com/xml/yfiles-common/2.0/PortStyle">
		<default>
			<x:Static Member="y:VoidPortStyle.Instance"/>
		</default>
	</key>
	<key id="d18" for="port" attr.name="PortViewState" y:attr.uri="http://www.yworks.com/xml/yfiles-common/2.0/folding/1.1/PortViewState"/>
	<key id="d19" attr.name="SharedData" y:attr.uri="http://www.yworks.com/xml/yfiles-common/2.0/SharedData"/>
	<data key="d19">
		<y:SharedData>
			<y:InteriorLabelModel x:Key="1"/>
			<y:CompositeLabelModelParameter x:Key="2">
				<y:CompositeLabelModelParameter.Parameter>
					<y:InteriorLabelModelParameter Position="Center" Model="{y:GraphMLReference 1}"/>
				</y:CompositeLabelModelParameter.Parameter>
				<y:CompositeLabelModelParameter.Model>
					<y:CompositeLabelModel>
						<y:CompositeLabelModel.LabelModels>
							<y:ExteriorLabelModel Insets="5"/>
							<y:GraphMLReference ResourceKey="1"/>
							<y:FreeNodeLabelModel/>
						</y:CompositeLabelModel.LabelModels>
					</y:CompositeLabelModel>
				</y:CompositeLabelModelParameter.Model>
			</y:CompositeLabelModelParameter>
			<yjs:DefaultLabelStyle x:Key="3" verticalTextAlignment="BOTTOM" horizontalTextAlignment="CENTER" textFill="#E5000000">
				<yjs:DefaultLabelStyle.font>
					<yjs:Font fontSize="12" fontFamily="'Arial'"/>
				</yjs:DefaultLabelStyle.font>
			</yjs:DefaultLabelStyle>
			<yjs:ShapeNodeStyle x:Key="4" stroke="#FFD1C4E9" fill="#FFD1C4E9"/>
			<yjs:ShapeNodeStyle x:Key="5" stroke="#FFDCEDC8" fill="#FFDCEDC8"/>
			<yjs:PolylineEdgeStyle x:Key="6" stroke="#FF336699">
				<yjs:PolylineEdgeStyle.targetArrow>
					<yjs:Arrow type="NONE" scale="0.75" stroke="#FF336699" fill="#FF336699"/>
				</yjs:PolylineEdgeStyle.targetArrow>
				<yjs:PolylineEdgeStyle.sourceArrow>
					<yjs:Arrow type="NONE" stroke="#FF000000" fill="BLACK"/>
				</yjs:PolylineEdgeStyle.sourceArrow>
			</yjs:PolylineEdgeStyle>
		</y:SharedData>
	</data>
	<graph id="G" edgedefault="directed">
		<data key="d6">
			<y:Json>{"version":"2.0.0","theme":{"name":"light","version":"1.0.0"}}</y:Json>
		</data>
		<node id="n0">
			<data key="d0">0</data>
			<data key="d4">
				<x:List>
					<y:Label LayoutParameter="{y:GraphMLReference 2}" Style="{y:GraphMLReference 3}">
						<y:Label.Text>fog-controller</y:Label.Text>
					</y:Label>
				</x:List>
			</data>
			<data key="d5">
				<y:RectD X="277.9540407156078" Y="-662.748303516348" Width="138.43676742751387" Height="35.49660703269586"/>
			</data>
			<data key="d7">
				<yjs:ShapeNodeStyle stroke="#FFFFE0B2" fill="#FFFFE0B2"/>
			</data>
			<port name="p0"/>
			<port name="p1"/>
			<port name="p2"/>
			<port name="p3"/>
			<port name="p4"/>
			<port name="p5"/>
		</node>
		<node id="n1">
			<data key="d0">4</data>
			<data key="d3"><![CDATA[{"sidecar": true}]]></data>
			<data key="d4">
				<x:List>
					<y:Label LayoutParameter="{y:GraphMLReference 2}" Style="{y:GraphMLReference 3}">
						<y:Label.Text>fog-service-3</y:Label.Text>
					</y:Label>
				</x:List>
			</data>
			<data key="d5">
				<y:RectD X="460.39080814312155" Y="-647.748303516348" Width="99.21838371375691" Height="35.49660703269586"/>
			</data>
			<data key="d7">
				<y:GraphMLReference ResourceKey="4"/>
			</data>
			<port name="p0"/>
			<port name="p1"/>
			<port name="p2"/>
			<port name="p3"/>
			<port name="p4"/>
			<port name="p5"/>
			<port name="p6"/>
			<port name="p7"/>
		</node>
		<node id="n2">
			<data key="d0">5</data>
			<data key="d3"><![CDATA[{"sidecar": true}]]></data>
			<data key="d4">
				<x:List>
					<y:Label LayoutParameter="{y:GraphMLReference 2}" Style="{y:GraphMLReference 3}">
						<y:Label.Text>fog-service-1</y:Label.Text>
					</y:Label>
				</x:List>
			</data>
			<data key="d5">
				<y:RectD X="40.390808143121546" Y="-587.748303516348" Width="99.21838371375691" Height="35.49660703269586"/>
			</data>
			<data key="d7">
				<y:GraphMLReference ResourceKey="4"/>
			</data>
			<port name="p0"/>
			<port name="p1"/>
			<port name="p2"/>
			<port name="p3"/>
			<port name="p4"/>
			<port name="p5"/>
			<port name="p6"/>
			<port name="p7"/>
		</node>
		<node id="n3">
			<data key="d0">6</data>
			<data key="d3"><![CDATA[{"sidecar": true}]]></data>
			<data key="d4">
				<x:List>
					<y:Label LayoutParameter="{y:GraphMLReference 2}" Style="{y:GraphMLReference 3}">
						<y:Label.Text>fog-service-2</y:Label.Text>
					</y:Label>
				</x:List>
			</data>
			<data key="d5">
				<y:RectD X="160.39080814312155" Y="-647.748303516348" Width="99.21838371375691" Height="35.49660703269586"/>
			</data>
			<data key="d7">
				<y:GraphMLReference ResourceKey="4"/>
			</data>
			<port name="p0"/>
			<port name="p1"/>
			<port name="p2"/>
			<port name="p3"/>
			<port name="p4"/>
			<port name="p5"/>
			<port name="p6"/>
			<port name="p7"/>
		</node>
		<node id="n4">
			<data key="d0">8</data>
			<data key="d4">
				<x:List>
					<y:Label LayoutParameter="{y:GraphMLReference 2}" Style="{y:GraphMLReference 3}">
						<y:Label.Text>fog-client-1</y:Label.Text>
					</y:Label>
				</x:List>
			</data>
			<data key="d5">
				<y:RectD X="32.78161628624309" Y="-497.74830351634796" Width="91.21838371375691" Height="35.49660703269586"/>
			</data>
			<data key="d7">
				<y:GraphMLReference ResourceKey="5"/>
			</data>
			<port name="p0"/>
			<port name="p1"/>
			<port name="p2"/>
			<port name="p3"/>
		</node>
		<node id="n5">
			<data key="d0">9</data>
			<data key="d4">
				<x:List>
					<y:Label LayoutParameter="{y:GraphMLReference 2}" Style="{y:GraphMLReference 3}">
						<y:Label.Text>fog-client-2</y:Label.Text>
					</y:Label>
				</x:List>
			</data>
			<data key="d5">
				<y:RectD X="14.390808143121546" Y="-707.748303516348" Width="91.21838371375691" Height="35.49660703269586"/>
			</data>
			<data key="d7">
				<y:GraphMLReference ResourceKey="5"/>
			</data>
			<port name="p0"/>
			<port name="p1"/>
			<port name="p2"/>
			<port name="p3"/>
		</node>
		<node id="n6">
			<data key="d0">10</data>
			<data key="d4">
				<x:List>
					<y:Label LayoutParameter="{y:GraphMLReference 2}" Style="{y:GraphMLReference 3}">
						<y:Label.Text>fog-client-3</y:Label.Text>
					</y:Label>
				</x:List>
			</data>
			<data key="d5">
				<y:RectD X="194.39080814312155" Y="-557.748303516348" Width="91.21838371375691" Height="35.49660703269586"/>
			</data>
			<data key="d7">
				<y:GraphMLReference ResourceKey="5"/>
			</data>
			<port name="p0"/>
			<port name="p1"/>
			<port name="p2"/>
			<port name="p3"/>
		</node>
		<node id="n7">
			<data key="d0">11</data>
			<data key="d4">
				<x:List>
					<y:Label LayoutParameter="{y:GraphMLReference 2}" Style="{y:GraphMLReference 3}">
						<y:Label.Text>fog-client-4</y:Label.Text>
					</y:Label>
				</x:List>
			</data>
			<data key="d5">
				<y:RectD X="164.39080814312155" Y="-723.748303516348" Width="91.21838371375691" Height="35.49660703269586"/>
			</data>
			<data key="d7">
				<y:GraphMLReference ResourceKey="5"/>
			</data>
			<port name="p0"/>
			<port name="p1"/>
			<port name="p2"/>
			<port name="p3"/>
		</node>
		<node id="n8">
			<data key="d0">12</data>
			<data key="d4">
				<x:List>
					<y:Label LayoutParameter="{y:GraphMLReference 2}" Style="{y:GraphMLReference 3}">
						<y:Label.Text>fog-client-6</y:Label.Text>
					</y:Label>
				</x:List>
			</data>
			<data key="d5">
				<y:RectD X="416.39080814312166" Y="-707.748303516348" Width="91.21838371375691" Height="35.49660703269586"/>
			</data>
			<data key="d7">
				<y:GraphMLReference ResourceKey="5"/>
			</data>
			<port name="p0"/>
			<port name="p1"/>
			<port name="p2"/>
			<port name="p3"/>
		</node>
		<node id="n9">
			<data key="d0">17</data>
			<data key="d4">
				<x:List>
					<y:Label LayoutParameter="{y:GraphMLReference 2}" Style="{y:GraphMLReference 3}">
						<y:Label.Text>fog-client-5</y:Label.Text>
					</y:Label>
				</x:List>
			</data>
			<data key="d5">
				<y:RectD X="434.3908081431216" Y="-587.748303516348" Width="91.21838371375691" Height="35.49660703269586"/>
			</data>
			<data key="d7">
				<y:GraphMLReference ResourceKey="5"/>
			</data>
			<port name="p0"/>
			<port name="p1"/>
			<port name="p2"/>
			<port name="p3"/>
		</node>
		<edge id="e0" source="n4" target="n2" sourceport="p0" targetport="p0">
			<data key="d13">
				<y:GraphMLReference ResourceKey="6"/>
			</data>
		</edge>
		<edge id="e1" source="n4" target="n3" sourceport="p1" targetport="p0">
			<data key="d13">
				<y:GraphMLReference ResourceKey="6"/>
			</data>
		</edge>
		<edge id="e2" source="n4" target="n1" sourceport="p2" targetport="p0">
			<data key="d13">
				<y:GraphMLReference ResourceKey="6"/>
			</data>
		</edge>
		<edge id="e3" source="n4" target="n0" sourceport="p3" targetport="p0">
			<data key="d13">
				<y:GraphMLReference ResourceKey="6"/>
			</data>
		</edge>
		<edge id="e4" source="n5" target="n2" sourceport="p0" targetport="p1">
			<data key="d13">
				<y:GraphMLReference ResourceKey="6"/>
			</data>
		</edge>
		<edge id="e5" source="n5" target="n3" sourceport="p1" targetport="p1">
			<data key="d13">
				<y:GraphMLReference ResourceKey="6"/>
			</data>
		</edge>
		<edge id="e6" source="n5" target="n1" sourceport="p2" targetport="p1">
			<data key="d13">
				<y:GraphMLReference ResourceKey="6"/>
			</data>
		</edge>
		<edge id="e7" source="n5" target="n0" sourceport="p3" targetport="p1">
			<data key="d13">
				<y:GraphMLReference ResourceKey="6"/>
			</data>
		</edge>
		<edge id="e8" source="n6" target="n2" sourceport="p0" targetport="p2">
			<data key="d13">
				<y:GraphMLReference ResourceKey="6"/>
			</data>
		</edge>
		<edge id="e9" source="n6" target="n3" sourceport="p1" targetport="p2">
			<data key="d13">
				<y:GraphMLReference ResourceKey="6"/>
			</data>
		</edge>
		<edge id="e10" source="n6" target="n1" sourceport="p2" targetport="p2">
			<data key="d13">
				<y:GraphMLReference ResourceKey="6"/>
			</data>
		</edge>
		<edge id="e11" source="n6" target="n0" sourceport="p3" targetport="p2">
			<data key="d13">
				<y:GraphMLReference ResourceKey="6"/>
			</data>
		</edge>
		<edge id="e12" source="n7" target="n2" sourceport="p0" targetport="p3">
			<data key="d13">
				<y:GraphMLReference ResourceKey="6"/>
			</data>
		</edge>
		<edge id="e13" source="n7" target="n3" sourceport="p1" targetport="p3">
			<data key="d13">
				<y:GraphMLReference ResourceKey="6"/>
			</data>
		</edge>
		<edge id="e14" source="n7" target="n1" sourceport="p2" targetport="p3">
			<data key="d13">
				<y:GraphMLReference ResourceKey="6"/>
			</data>
		</edge>
		<edge id="e15" source="n7" target="n0" sourceport="p3" targetport="p3">
			<data key="d13">
				<y:GraphMLReference ResourceKey="6"/>
			</data>
		</edge>
		<edge id="e16" source="n9" target="n2" sourceport="p0" targetport="p4">
			<data key="d13">
				<y:GraphMLReference ResourceKey="6"/>
			</data>
		</edge>
		<edge id="e17" source="n9" target="n3" sourceport="p1" targetport="p4">
			<data key="d13">
				<y:GraphMLReference ResourceKey="6"/>
			</data>
		</edge>
		<edge id="e18" source="n9" target="n1" sourceport="p2" targetport="p4">
			<data key="d13">
				<y:GraphMLReference ResourceKey="6"/>
			</data>
		</edge>
		<edge id="e19" source="n9" target="n0" sourceport="p3" targetport="p4">
			<data key="d13">
				<y:GraphMLReference ResourceKey="6"/>
			</data>
		</edge>
		<edge id="e20" source="n2" target="n3" sourceport="p5" targetport="p5">
			<data key="d13">
				<y:GraphMLReference ResourceKey="6"/>
			</data>
		</edge>
		<edge id="e21" source="n2" target="n1" sourceport="p6" targetport="p5">
			<data key="d13">
				<y:GraphMLReference ResourceKey="6"/>
			</data>
		</edge>
		<edge id="e22" source="n3" target="n1" sourceport="p6" targetport="p6">
			<data key="d13">
				<y:GraphMLReference ResourceKey="6"/>
			</data>
		</edge>
		<edge id="e23" source="n8" target="n2" sourceport="p0" targetport="p7">
			<data key="d13">
				<y:GraphMLReference ResourceKey="6"/>
			</data>
		</edge>
		<edge id="e24" source="n8" target="n3" sourceport="p1" targetport="p7">
			<data key="d13">
				<y:GraphMLReference ResourceKey="6"/>
			</data>
		</edge>
		<edge id="e25" source="n8" target="n1" sourceport="p2" targetport="p7">
			<data key="d13">
				<y:GraphMLReference ResourceKey="6"/>
			</data>
		</edge>
		<edge id="e26" source="n8" target="n0" sourceport="p3" targetport="p5">
			<data key="d13">
				<y:GraphMLReference ResourceKey="6"/>
			</data>
		</edge>
	</graph>
</graphml>